// Jest Snapshot v1, https://goo.gl/fbAQLP

exports[`media-card: should lazy render media cards after scrolling down 1`] = `
Object {
  "content": Array [
    Object {
      "attrs": Object {
        "layout": "center",
        "width": null,
      },
      "content": Array [
        Object {
          "attrs": Object {
            "__contextId": "DUMMY-OBJECT-ID",
            "__displayType": null,
            "__external": false,
            "__fileMimeType": "image/svg+xml",
            "__fileName": "example.png",
            "__fileSize": 235,
            "alt": null,
            "collection": "MediaServicesSample",
            "height": 298,
            "id": "1234-5678-abcd-efgh",
            "occurrenceKey": null,
            "type": "file",
            "url": null,
            "width": 200,
          },
          "type": "media",
        },
      ],
      "type": "mediaSingle",
    },
    Object {
      "type": "paragraph",
    },
    Object {
      "type": "paragraph",
    },
    Object {
      "type": "paragraph",
    },
    Object {
      "type": "paragraph",
    },
    Object {
      "type": "paragraph",
    },
    Object {
      "type": "paragraph",
    },
    Object {
      "type": "paragraph",
    },
    Object {
      "type": "paragraph",
    },
    Object {
      "type": "paragraph",
    },
    Object {
      "type": "paragraph",
    },
    Object {
      "type": "paragraph",
    },
    Object {
      "type": "paragraph",
    },
    Object {
      "type": "paragraph",
    },
    Object {
      "type": "paragraph",
    },
    Object {
      "type": "paragraph",
    },
    Object {
      "type": "paragraph",
    },
    Object {
      "type": "paragraph",
    },
    Object {
      "type": "paragraph",
    },
    Object {
      "type": "paragraph",
    },
    Object {
      "type": "paragraph",
    },
    Object {
      "type": "paragraph",
    },
    Object {
      "type": "paragraph",
    },
    Object {
      "type": "paragraph",
    },
    Object {
      "type": "paragraph",
    },
    Object {
      "type": "paragraph",
    },
    Object {
      "type": "paragraph",
    },
    Object {
      "type": "paragraph",
    },
    Object {
      "type": "paragraph",
    },
    Object {
      "type": "paragraph",
    },
    Object {
      "type": "paragraph",
    },
    Object {
      "type": "paragraph",
    },
    Object {
      "type": "paragraph",
    },
    Object {
      "type": "paragraph",
    },
    Object {
      "type": "paragraph",
    },
    Object {
      "type": "paragraph",
    },
    Object {
      "type": "paragraph",
    },
    Object {
      "type": "paragraph",
    },
    Object {
      "type": "paragraph",
    },
    Object {
      "type": "paragraph",
    },
    Object {
      "type": "paragraph",
    },
    Object {
      "type": "paragraph",
    },
    Object {
      "type": "paragraph",
    },
    Object {
      "type": "paragraph",
    },
    Object {
      "type": "paragraph",
    },
    Object {
      "type": "paragraph",
    },
    Object {
      "type": "paragraph",
    },
    Object {
      "type": "paragraph",
    },
    Object {
      "type": "paragraph",
    },
    Object {
      "type": "paragraph",
    },
    Object {
      "type": "paragraph",
    },
    Object {
      "type": "paragraph",
    },
    Object {
      "type": "paragraph",
    },
    Object {
      "type": "paragraph",
    },
    Object {
      "type": "paragraph",
    },
    Object {
      "type": "paragraph",
    },
    Object {
      "type": "paragraph",
    },
    Object {
      "type": "paragraph",
    },
    Object {
      "type": "paragraph",
    },
    Object {
      "type": "paragraph",
    },
    Object {
      "type": "paragraph",
    },
    Object {
      "type": "paragraph",
    },
    Object {
      "type": "paragraph",
    },
    Object {
      "type": "paragraph",
    },
    Object {
      "type": "paragraph",
    },
    Object {
      "type": "paragraph",
    },
    Object {
      "type": "paragraph",
    },
    Object {
      "type": "paragraph",
    },
    Object {
      "type": "paragraph",
    },
    Object {
      "type": "paragraph",
    },
    Object {
      "type": "paragraph",
    },
    Object {
      "type": "paragraph",
    },
    Object {
      "type": "paragraph",
    },
    Object {
      "type": "paragraph",
    },
    Object {
      "type": "paragraph",
    },
    Object {
      "type": "paragraph",
    },
    Object {
      "type": "paragraph",
    },
    Object {
      "type": "paragraph",
    },
    Object {
      "type": "paragraph",
    },
    Object {
      "type": "paragraph",
    },
    Object {
      "type": "paragraph",
    },
    Object {
      "type": "paragraph",
    },
    Object {
      "type": "paragraph",
    },
    Object {
      "type": "paragraph",
    },
    Object {
      "type": "paragraph",
    },
    Object {
      "type": "paragraph",
    },
    Object {
      "type": "paragraph",
    },
    Object {
      "type": "paragraph",
    },
    Object {
      "type": "paragraph",
    },
    Object {
      "type": "paragraph",
    },
    Object {
      "type": "paragraph",
    },
    Object {
      "type": "paragraph",
    },
    Object {
      "type": "paragraph",
    },
    Object {
      "type": "paragraph",
    },
    Object {
      "type": "paragraph",
    },
    Object {
      "type": "paragraph",
    },
    Object {
      "type": "paragraph",
    },
    Object {
      "type": "paragraph",
    },
    Object {
      "attrs": Object {
        "__autoSize": false,
        "isNumberColumnEnabled": false,
        "layout": "wide",
      },
      "content": Array [
        Object {
          "content": Array [
            Object {
              "attrs": Object {
                "background": null,
                "colspan": 1,
                "colwidth": null,
                "rowspan": 1,
              },
              "content": Array [
                Object {
                  "content": Array [
                    Object {
                      "text": "Column 1",
                      "type": "text",
                    },
                  ],
                  "type": "paragraph",
                },
              ],
              "type": "tableHeader",
            },
            Object {
              "attrs": Object {
                "background": null,
                "colspan": 1,
                "colwidth": null,
                "rowspan": 1,
              },
              "content": Array [
                Object {
                  "content": Array [
                    Object {
                      "text": "Column 2",
                      "type": "text",
                    },
                  ],
                  "type": "paragraph",
                },
              ],
              "type": "tableHeader",
            },
            Object {
              "attrs": Object {
                "background": null,
                "colspan": 1,
                "colwidth": null,
                "rowspan": 1,
              },
              "content": Array [
                Object {
                  "content": Array [
                    Object {
                      "text": "Column 3",
                      "type": "text",
                    },
                  ],
                  "type": "paragraph",
                },
              ],
              "type": "tableHeader",
            },
            Object {
              "attrs": Object {
                "background": null,
                "colspan": 1,
                "colwidth": null,
                "rowspan": 1,
              },
              "content": Array [
                Object {
                  "content": Array [
                    Object {
                      "text": "Column 4",
                      "type": "text",
                    },
                  ],
                  "type": "paragraph",
                },
              ],
              "type": "tableHeader",
            },
          ],
          "type": "tableRow",
        },
        Object {
          "content": Array [
            Object {
              "attrs": Object {
                "background": null,
                "colspan": 1,
                "colwidth": null,
                "rowspan": 1,
              },
              "content": Array [
                Object {
                  "content": Array [
                    Object {
                      "content": Array [
                        Object {
                          "attrs": Object {
                            "layout": "center",
                            "width": null,
                          },
                          "content": Array [
                            Object {
                              "attrs": Object {
                                "__contextId": "DUMMY-OBJECT-ID",
                                "__displayType": null,
                                "__external": false,
                                "__fileMimeType": "image/svg+xml",
                                "__fileName": "example.png",
                                "__fileSize": 235,
                                "alt": null,
                                "collection": "MediaServicesSample",
                                "height": 298,
                                "id": "1234-5678-abcd-efgh",
                                "occurrenceKey": null,
                                "type": "file",
                                "url": null,
                                "width": 200,
                              },
                              "type": "media",
                            },
                          ],
                          "type": "mediaSingle",
                        },
                      ],
                      "type": "listItem",
                    },
                    Object {
                      "content": Array [
                        Object {
                          "attrs": Object {
                            "layout": "center",
                            "width": null,
                          },
                          "content": Array [
                            Object {
                              "attrs": Object {
                                "__contextId": "DUMMY-OBJECT-ID",
                                "__displayType": null,
                                "__external": false,
                                "__fileMimeType": "image/svg+xml",
                                "__fileName": "example.png",
                                "__fileSize": 235,
                                "alt": null,
                                "collection": "MediaServicesSample",
                                "height": 298,
                                "id": "1234-5678-abcd-efgh",
                                "occurrenceKey": null,
                                "type": "file",
                                "url": null,
                                "width": 200,
                              },
                              "type": "media",
                            },
                          ],
                          "type": "mediaSingle",
                        },
                      ],
                      "type": "listItem",
                    },
                  ],
                  "type": "bulletList",
                },
              ],
              "type": "tableCell",
            },
            Object {
              "attrs": Object {
                "background": null,
                "colspan": 1,
                "colwidth": null,
                "rowspan": 1,
              },
              "content": Array [
                Object {
                  "attrs": Object {
                    "layout": "center",
                    "width": null,
                  },
                  "content": Array [
                    Object {
                      "attrs": Object {
                        "__contextId": "DUMMY-OBJECT-ID",
                        "__displayType": null,
                        "__external": false,
                        "__fileMimeType": "image/svg+xml",
                        "__fileName": "example.png",
                        "__fileSize": 235,
                        "alt": null,
                        "collection": "MediaServicesSample",
                        "height": 298,
                        "id": "1234-5678-abcd-efgh",
                        "occurrenceKey": null,
                        "type": "file",
                        "url": null,
                        "width": 200,
                      },
                      "type": "media",
                    },
                  ],
                  "type": "mediaSingle",
                },
              ],
              "type": "tableCell",
            },
            Object {
              "attrs": Object {
                "background": null,
                "colspan": 1,
                "colwidth": null,
                "rowspan": 1,
              },
              "content": Array [
                Object {
                  "attrs": Object {
                    "layout": "center",
                    "width": null,
                  },
                  "content": Array [
                    Object {
                      "attrs": Object {
                        "__contextId": "DUMMY-OBJECT-ID",
                        "__displayType": null,
                        "__external": false,
                        "__fileMimeType": "image/svg+xml",
                        "__fileName": "example.png",
                        "__fileSize": 235,
                        "alt": null,
                        "collection": "MediaServicesSample",
                        "height": 298,
                        "id": "1234-5678-abcd-efgh",
                        "occurrenceKey": null,
                        "type": "file",
                        "url": null,
                        "width": 200,
                      },
                      "type": "media",
                    },
                  ],
                  "type": "mediaSingle",
                },
              ],
              "type": "tableCell",
            },
            Object {
              "attrs": Object {
                "background": null,
                "colspan": 1,
                "colwidth": null,
                "rowspan": 1,
              },
              "content": Array [
                Object {
                  "attrs": Object {
                    "layout": "center",
                    "width": null,
                  },
                  "content": Array [
                    Object {
                      "attrs": Object {
                        "__contextId": "DUMMY-OBJECT-ID",
                        "__displayType": null,
                        "__external": false,
                        "__fileMimeType": "image/svg+xml",
                        "__fileName": "example.png",
                        "__fileSize": 235,
                        "alt": null,
                        "collection": "MediaServicesSample",
                        "height": 298,
                        "id": "1234-5678-abcd-efgh",
                        "occurrenceKey": null,
                        "type": "file",
                        "url": null,
                        "width": 200,
                      },
                      "type": "media",
                    },
                  ],
                  "type": "mediaSingle",
                },
              ],
              "type": "tableCell",
            },
          ],
          "type": "tableRow",
        },
      ],
      "type": "table",
    },
    Object {
      "attrs": Object {
        "layout": "center",
        "width": null,
      },
      "content": Array [
        Object {
          "attrs": Object {
            "__contextId": "DUMMY-OBJECT-ID",
            "__displayType": null,
            "__external": false,
            "__fileMimeType": "image/svg+xml",
            "__fileName": "example.png",
            "__fileSize": 235,
            "alt": null,
            "collection": "MediaServicesSample",
            "height": 298,
            "id": "1234-5678-abcd-efgh",
            "occurrenceKey": null,
            "type": "file",
            "url": null,
            "width": 200,
          },
          "type": "media",
        },
      ],
      "type": "mediaSingle",
    },
  ],
  "type": "doc",
}
`;
