{
  "version": 1,
  "type": "doc",
  "content": [
    {
      "type": "heading",
      "attrs": {
        "level": 2
      },
      "content": []
    },
    {
      "type": "table",
      "attrs": {
        "isNumberColumnEnabled": false,
        "layout": "full-width"
      },
      "content": [
        {
          "type": "tableRow",
          "content": [
            {
              "type": "tableHeader",
              "attrs": {
                "colwidth": [
                  228
                ]
              },
              "content": [
                {
                  "type": "paragraph",
                  "content": []
                }
              ]
            },
            {
              "type": "tableCell",
              "attrs": {
                "colwidth": [
                  579
                ]
              },
              "content": [
                {
                  "type": "mediaSingle",
                  "attrs": {
                    "layout": "center"
                  },
                  "content": [
                    {
                      "type": "media",
                      "attrs": {
                        "id": "170eaffb-935e-48ca-a917-3352f1bba21a",
                        "type": "file",
                        "collection": "MediaServicesSample",
                        "width": 953,
                        "height": 195
                      }
                    }
                  ]
                },
                {
                  "type": "paragraph",
                  "content": []
                }
              ]
            },
            {
              "type": "tableCell",
              "attrs": {
                "colwidth": [
                  420
                ]
              },
              "content": [
                {
                  "type": "paragraph",
                  "content": []
                }
              ]
            },
            {
              "type": "tableCell",
              "attrs": {
                "colwidth": [
                  522
                ]
              },
              "content": [
                {
                  "type": "paragraph",
                  "content": []
                }
              ]
            }
          ]
        }
      ]
    },
    {
      "type": "paragraph",
      "content": []
    },
    {
      "type": "paragraph",
      "content": []
    }
  ]
}